Civil servants by sexual orientation (by profession and department, 31 March 2020)
…
dept_margins <- messy_sheet %>%
  select(dept, Total) %>%
  mutate(perc = as.numeric(Total)*100,
         Total = NULL)

## Warning: Problem with `mutate()` input `perc`.
## i NAs introduced by coercion
## i Input `perc` is `as.numeric(Total) * 100`.

## Warning in mask$eval_all_mutate(dots[[i]]): NAs introduced by coercion

dept_margins

## # A tibble: 109 x 2
##    dept                                                                     perc
##    <chr>                                                                   <dbl>
##  1 Attorney General's Office                                               NA   
##  2 Crown Prosecution Service                                                5   
##  3 Crown Prosecution Service Inspectorate                                  NA   
##  4 Government Legal Department                                              8.7 
##  5 Serious Fraud Office                                                     7.  
##  6 Department for Business, Energy and Industrial Strategy (excl. agencie~  9.2 
##  7 Advisory, Conciliation and Arbitration Service                           5.9 
##  8 Companies House                                                          4.40
##  9 Insolvency Service                                                      NA   
## 10 Met Office                                                              NA   
## # ... with 99 more rows
…
